…
library(dplyr)
library(stringr)

# original number of columns in data from REDCap
ncol(abc_data)
#> [1] 2438

# subset to enrollment rows, then drop columns with all NAs
enroll <- abc_data |>
  filter(str_detect(redcap_event_name, 'Enrollment')) |>
  drop_vars_all_na()

enroll
#> # A tibble: 400 × 519
#>    cp_ptid       redcap_event_name        cp_version cp_frmcompldate cp_mom_baby
#>    <chr>         <chr>                    <chr>      <date>          <chr>      
#>  1 50-22-0001-M1 Enrollment (Arm 1: Moth… Version 2… 2022-01-10      Mom        
#>  2 50-22-0002-M1 Enrollment (Arm 1: Moth… Version 2… 2022-01-10      Mom        
#>  3 50-22-0003-M1 Enrollment (Arm 1: Moth… Version 2… 2022-01-10      Mom        
#>  4 50-22-0004-M1 Enrollment (Arm 1: Moth… Version 2… 2022-01-11      Mom        
#>  5 50-22-0005-M1 Enrollment (Arm 1: Moth… Version 2… 2022-01-11      Mom        
#>  6 50-22-0006-M1 Enrollment (Arm 1: Moth… Version 2… 2022-01-11      Mom        
#>  7 50-22-0007-M1 Enrollment (Arm 1: Moth… Version 2… 2022-01-11      Mom        
#>  8 50-22-0008-M1 Enrollment (Arm 1: Moth… Version 2… 2022-01-12      Mom        
#>  9 50-22-0009-M1 Enrollment (Arm 1: Moth… Version 2… 2022-01-13      Mom        
#> 10 50-22-0010-M1 Enrollment (Arm 1: Moth… Version 2… 2022-01-13      Mom        
#> # ℹ 390 more rows
#> # ℹ 514 more variables: cp_followup_type <chr>, cp_trimester_enrolled <chr>,
#> #   cp_next_visit_date <date>, cp_entry_staff <chr>,
#> #   cp_entry_staff_othr_spc <chr>, cp_data_entry_date <date>,
#> #   cp_update_date <date>, client_page_complete <chr>, con_ptid <chr>,
#> #   con_frmcompldate <date>, con_enr_sign <chr>, con_enr_version <chr>,
#> #   con_complstaff_init_qc <chr>, con_review_staff_qc <chr>, …
…
